<?xml version="1.0" encoding="UTF-8"?>
<CustomTab xmlns="http://soap.sforce.com/2006/04/metadata">
    <label>ContractEditor</label>
    <mobileReady>false</mobileReady>
    <motif>Custom61: Castle</motif>
    <page>ContractList</page>
</CustomTab>
